5 Correlation and Regression – Quantitative Political Science I
…
# A tibble: 1 × 12
  r.squared adj.r.squared sigma statistic p.value    df  logLik    AIC
      <dbl>         <dbl> <dbl>     <dbl>   <dbl> <dbl>   <dbl>  <dbl>
1     0.218         0.218  35.7     2005.       0     1 -35904. 71813.
# ℹ 4 more variables: BIC <dbl>, deviance <dbl>, df.residual <int>,
#   nobs <int>

The values we most care about are "r.squared", "sigma" (the residual standard deviation), and "nobs" (the number of observations used to estimate the regression).

The augment() function “augments” the data used to fit the model with regression predictions.

augment(fit_trump_police)

# A tibble: 7,190 × 9
   .rownames therm_trump therm_police .fitted .resid     .hat .sigma
   <chr>           <dbl>        <dbl>   <dbl>  <dbl>    <dbl>  <dbl>
 1 1                 100           85    50.8   49.2 0.000185   35.7
 2 2                   0           90    54.5  -54.5 0.000222   35.7
 3 3                   0           40    17.1  -17.1 0.000343   35.7
 4 4                  15          100    62.0  -47.0 0.000329   35.7
 5 5                  85           70    39.5   45.5 0.000139   35.7
 6 6                   0           70    39.5  -39.5 0.000139   35.7
 7 7                  75           60    32.1   42.9 0.000163   35.7
 8 8                 100          100    62.0   38.0 0.000329   35.7
 9 9                   0           60    32.1  -32.1 0.000163   35.7
10 10                  0           70    39.5  -39.5 0.000139   35.7
# ℹ 7,180 more rows
# ℹ 2 more variables: .cooksd <dbl>, .std.resid <dbl>

The ".fitted" column contains the fitted values, and ".resid" contains the residuals.

We can also use the augment() function to calculate predictions for new data that wasn’t used to estimate the regression. For example, let’s look at the subset of ANES respondents who answered the question about their feelings towards the police but didn’t say how they felt about Trump.

df_anes_notrump <- df_anes |>
  filter(is.na(therm_trump)) |>
  filter(!is.na(therm_police)) |>
  select(id, therm_police)

df_anes_notrump

# A tibble: 198 × 2
      id therm_police
   <dbl>        <dbl>
 1    29           70
 2    74           85
 3   122           40
 4   153           70
 5   179          100
 6   180          100
 7   216          100
 8   241           85
 9   255           40
10   323          100
# ℹ 188 more rows

By using the newdata argument of augment(), we can predict how these respondents feel about Trump based on their feelings toward the police.

augment(fit_trump_police, newdata = df_anes_notrump)

# A tibble: 198 × 3
      id therm_police .fitted
   <dbl>        <dbl>   <dbl>
 1    29           70    39.5
 2    74           85    50.8
 3   122           40    17.1
 4   153           70    39.5
 5   179          100    62.0
 6   180          100    62.0
 7   216          100    62.0
 8   241           85    50.8
 9   255           40    17.1
10   323          100    62.0
# ℹ 188 more rows

Using the interval argument, we can get a rough estimate of how precise these predictions are.

augment(
  fit_trump_police,
  newdata = df_anes_notrump,
  interval = "prediction",
  conf.level = 0.5
)

# A tibble: 198 × 5
      id therm_police .fitted .lower .upper
   <dbl>        <dbl>   <dbl>  <dbl>  <dbl>
 1    29           70    39.5  15.5    63.6
 2    74           85    50.8  26.7    74.8
 3   122           40    17.1  -6.96   41.2
 4   153           70    39.5  15.5    63.6
 5   179          100    62.0  37.9    86.0
 6   180          100    62.0  37.9    86.0
 7   216          100    62.0  37.9    86.0
 8   241           85    50.8  26.7    74.8
 9   255           40    17.1  -6.96   41.2
10   323          100    62.0  37.9    86.0
# ℹ 188 more rows

conf.level is a number between 0 and 1 specifying the confidence level for the prediction. Here I went with 50%, aka conf.level = 0.5. What this is telling us, for example, is that for a respondent with the same features as our first one (namely, a police feeling thermometer of 70), we’d expect their Trump feeling thermometer to be between 15.5 and 63.6 about half of the time. In other words, there is a lot of uncertainty about these predictions!

The augment() function can also be useful for visualizing our regression results. For example, suppose we wanted to plot our prediction + the uncertainty around it for each possible police thermometer that’s a multiple of 5. First we’d create a data frame with the values of the police thermometer we care about. I’ll use the seq() function to generate an evenly spaced sequence of numbers.

df_police_spaced <- tibble(
  therm_police = seq(from = 0, to = 100, by = 5)
)

df_police_spaced

# A tibble: 21 × 1
   therm_police
          <dbl>
 1            0
 2            5
 3           10
 4           15
 5           20
 6           25
 7           30
 8           35
 9           40
10           45
# ℹ 11 more rows
…
