2 Data Wrangling – Quantitative Political Science I
…
… (1) a change in type and/or an increase in intensity of disruptive, that is, hostile verbal or physical interactions between two or more states, with a heightened probability of military hostilities; that, in turn, (2) destabilizes their relationship and challenges the structure of an international system — global, dominant, or subsystem.

Quotation from Michael Brecher and Jonathan Wilkenfeld, A Study of Crisis, pages 4–5.

To put it more simply, countries are in a state of crisis when something happens that raises tensions between them to the point that there is a legitimate fear of war. Every war starts as a crisis, but not all crises lead to war (and in fact the vast majority do not).

We will work with the ICB Project’s “actor level” dataset, in which each observation (row) is a crisis participant. For example, in the Cuban Missile Crisis of 1962 (crisis #196 in the ICB data), the United States, Cuba, and the Soviet Union are each separate crisis participants. The data is on my website at https://bkenkel.com/qps1/data/crises.csv.

library("tidyverse")
df_crises <- read_csv("https://bkenkel.com/qps1/data/crises.csv")

df_crises

# A tibble: 1,131 × 95
   icb2  crisno cracno cracid actor systrgyr systrgmo systrgda crisname 
   <chr>  <dbl>  <dbl>  <dbl> <chr>    <dbl>    <dbl>    <dbl> <chr>    
 1 ICB2       1      1    365 RUS       1918        5       NA RUSSIAN …
 2 ICB2       2      2     93 NIC       1918        5       25 COSTA RI…
 3 ICB2       2      3     94 COS       1918        5       25 COSTA RI…
 4 ICB2       3      4    365 RUS       1918        6       23 RUSSIAN …
 5 ICB2       4      5    365 RUS       1918       11       18 BALTIC I…
 6 ICB2       4      6    366 EST       1918       11       18 BALTIC I…
 7 ICB2       4      7    368 LIT       1918       11       18 BALTIC I…
 8 ICB2       4      8    367 LAT       1918       11       18 BALTIC I…
 9 ICB2       5      9    315 CZE       1919        1       15 TESCHEN  
10 ICB2       5     10    290 POL       1919        1       15 TESCHEN  
# ℹ 1,121 more rows
# ℹ 86 more variables: triggr <dbl>, yrtrig <dbl>, motrig <dbl>,
#   datrig <dbl>, trigent <dbl>, trigloc <dbl>, southv <dbl>,
#   southpow <dbl>, sizedu <dbl>, strcdu <dbl>, comlev <dbl>,
#   majres <dbl>, yerres <dbl>, monres <dbl>, dayres <dbl>,
#   trgresra <dbl>, crismg <dbl>, cenvio <dbl>, sevvio <dbl>,
#   usinv <dbl>, usfavr <dbl>, suinv <dbl>, sufavr <dbl>, …
…
So for example, the first crisis in the data (crisno = 1) is the Russian Civil War, which only involved Russia. The second (crisno = 2) is a 1918 crisis between Nicaragua and Costa Rica, each of which gets their own row in the data.

2.2 Subsetting

2.2.1 Subsetting by column: select()

The select() function lets us reduce the data frame just to have the columns we care about, or even just reorder the columns if you’re not trying to get rid of any data but want things to be arranged differently.

2.2.1.1 Basic usage

The simplest way to use select() is to tell it what data frame you’re working with, then list the names of the columns you want to keep from it.

select(df_crises, crisname, actor, systrgyr)

# A tibble: 1,131 × 3
   crisname             actor systrgyr
   <chr>                <chr>    <dbl>
 1 RUSSIAN CIVIL WAR I  RUS       1918
 2 COSTA RICAN COUP     NIC       1918
 3 COSTA RICAN COUP     COS       1918
 4 RUSSIAN CIVIL WAR II RUS       1918
 5 BALTIC INDEPENDENCE  RUS       1918
 6 BALTIC INDEPENDENCE  EST       1918
 7 BALTIC INDEPENDENCE  LIT       1918
 8 BALTIC INDEPENDENCE  LAT       1918
 9 TESCHEN              CZE       1919
10 TESCHEN              POL       1919
# ℹ 1,121 more rows

An important thing to know about how R works: Just running a function like this won’t change your data frame permanently. To see this, after running select() like the above, go back and look at the data frame — nothing has changed:

df_crises

# A tibble: 1,131 × 95
   icb2  crisno cracno cracid actor systrgyr systrgmo systrgda crisname 
   <chr>  <dbl>  <dbl>  <dbl> <chr>    <dbl>    <dbl>    <dbl> <chr>    
 1 ICB2       1      1    365 RUS       1918        5       NA RUSSIAN …
 2 ICB2       2      2     93 NIC       1918        5       25 COSTA RI…
 3 ICB2       2      3     94 COS       1918        5       25 COSTA RI…
 4 ICB2       3      4    365 RUS       1918        6       23 RUSSIAN …
 5 ICB2       4      5    365 RUS       1918       11       18 BALTIC I…
 6 ICB2       4      6    366 EST       1918       11       18 BALTIC I…
 7 ICB2       4      7    368 LIT       1918       11       18 BALTIC I…
 8 ICB2       4      8    367 LAT       1918       11       18 BALTIC I…
 9 ICB2       5      9    315 CZE       1919        1       15 TESCHEN  
10 ICB2       5     10    290 POL       1919        1       15 TESCHEN  
# ℹ 1,121 more rows
# ℹ 86 more variables: triggr <dbl>, yrtrig <dbl>, motrig <dbl>,
#   datrig <dbl>, trigent <dbl>, trigloc <dbl>, southv <dbl>,
#   southpow <dbl>, sizedu <dbl>, strcdu <dbl>, comlev <dbl>,
#   majres <dbl>, yerres <dbl>, monres <dbl>, dayres <dbl>,
#   trgresra <dbl>, crismg <dbl>, cenvio <dbl>, sevvio <dbl>,
#   usinv <dbl>, usfavr <dbl>, suinv <dbl>, sufavr <dbl>, …

All the original data is still there. Unlike some other programming languages, R essentially never modifies data “in place”. If you want to overwrite df_crises with the subsetted version, you need to explicitly tell R to overwrite it by assigning the select()’ed data frame to df_crises, as in:

# I don't want to overwrite df_crises, so not actually running this
df_crises <- select(df_crises, crisname, actor, systrgyr)

Just as a matter of workflow, I usually try not to overwrite the raw data frame that I’ve read into R. That way, if I decide later on that I want more out of the original data, I don’t have to go back and load from the CSV file and clean it up again. So in this case, I would typically just create a new data frame with the subsetted data:

df_crises_reduced <- select(df_crises, crisname, actor, systrgyr)

df_crises_reduced

# A tibble: 1,131 × 3
   crisname             actor systrgyr
   <chr>                <chr>    <dbl>
 1 RUSSIAN CIVIL WAR I  RUS       1918
 2 COSTA RICAN COUP     NIC       1918
 3 COSTA RICAN COUP     COS       1918
 4 RUSSIAN CIVIL WAR II RUS       1918
 5 BALTIC INDEPENDENCE  RUS       1918
 6 BALTIC INDEPENDENCE  EST       1918
 7 BALTIC INDEPENDENCE  LIT       1918
 8 BALTIC INDEPENDENCE  LAT       1918
 9 TESCHEN              CZE       1919
10 TESCHEN              POL       1919
# ℹ 1,121 more rows

2.2.1.2 Selecting by range or pattern

Suppose you wanted everything from the crisno column through the systrgyr column. Instead of typing out each column name explicitly, you can just use a colon (:) to tell select() to grab this range of variables:

select(df_crises, crisno:systrgyr)

# A tibble: 1,131 × 5
   crisno cracno cracid actor systrgyr
    <dbl>  <dbl>  <dbl> <chr>    <dbl>
 1      1      1    365 RUS       1918
 2      2      2     93 NIC       1918
 3      2      3     94 COS       1918
 4      3      4    365 RUS       1918
 5      4      5    365 RUS       1918
 6      4      6    366 EST       1918
 7      4      7    368 LIT       1918
 8      4      8    367 LAT       1918
 9      5      9    315 CZE       1919
10      5     10    290 POL       1919
# ℹ 1,121 more rows

If you want everything except a particular variable, you can use the minus sign (-) to exclude it. Let’s see how to get rid of the useless icb2 column that just marks the dataset version:

select(df_crises, -icb2)

# A tibble: 1,131 × 94
   crisno cracno cracid actor systrgyr systrgmo systrgda crisname triggr
    <dbl>  <dbl>  <dbl> <chr>    <dbl>    <dbl>    <dbl> <chr>     <dbl>
 1      1      1    365 RUS       1918        5       NA RUSSIAN…      9
 2      2      2     93 NIC       1918        5       25 COSTA R…      7
 3      2      3     94 COS       1918        5       25 COSTA R…      4
 4      3      4    365 RUS       1918        6       23 RUSSIAN…      7
 5      4      5    365 RUS       1918       11       18 BALTIC …      6
 6      4      6    366 EST       1918       11       18 BALTIC …      9
 7      4      7    368 LIT       1918       11       18 BALTIC …      9
 8      4      8    367 LAT       1918       11       18 BALTIC …      9
 9      5      9    315 CZE       1919        1       15 TESCHEN       2
10      5     10    290 POL       1919        1       15 TESCHEN       7
# ℹ 1,121 more rows
# ℹ 85 more variables: yrtrig <dbl>, motrig <dbl>, datrig <dbl>,
#   trigent <dbl>, trigloc <dbl>, southv <dbl>, southpow <dbl>,
#   sizedu <dbl>, strcdu <dbl>, comlev <dbl>, majres <dbl>,
#   yerres <dbl>, monres <dbl>, dayres <dbl>, trgresra <dbl>,
#   crismg <dbl>, cenvio <dbl>, sevvio <dbl>, usinv <dbl>,
#   usfavr <dbl>, suinv <dbl>, sufavr <dbl>, gbinv <dbl>, …

NoteIn-class exercise

What if you wanted to exclude the range of variables from actor through yrtrig? How would you do that without typing out each column name explicitly?

#
# [Write your answer here]
#

You can use the starts_with() subfunction to select all of the columns whose name starts with “sys”, for example:

select(df_crises, starts_with("sys"))

# A tibble: 1,131 × 4
   systrgyr systrgmo systrgda syslev
      <dbl>    <dbl>    <dbl>  <dbl>
 1     1918        5       NA      2
 2     1918        5       25      1
 3     1918        5       25      1
 4     1918        6       23      2
 5     1918       11       18      2
 6     1918       11       18      1
 7     1918       11       18      1
 8     1918       11       18      1
 9     1919        1       15      1
10     1919        1       15      1
# ℹ 1,121 more rows
…
NoteIn-class exercise

Select the columns whose name has "fav" anywhere in it. Look at the ?select help page to figure out the subfunction you need to do this.

#
# [Write your answer here]
#

2.2.1.3 Reordering and renaming

As you select variables, you can rename them by using the syntax newname = oldname:

select(df_crises, year = systrgyr, name = crisname)

# A tibble: 1,131 × 2
    year name                
   <dbl> <chr>               
 1  1918 RUSSIAN CIVIL WAR I 
 2  1918 COSTA RICAN COUP    
 3  1918 COSTA RICAN COUP    
 4  1918 RUSSIAN CIVIL WAR II
 5  1918 BALTIC INDEPENDENCE 
 6  1918 BALTIC INDEPENDENCE 
 7  1918 BALTIC INDEPENDENCE 
 8  1918 BALTIC INDEPENDENCE 
 9  1919 TESCHEN             
10  1919 TESCHEN             
# ℹ 1,121 more rows

To rename individual columns without dropping or rearranging the other columns, use the rename() function instead of select().

rename(df_crises, year = systrgyr, name = crisname)

# A tibble: 1,131 × 95
   icb2  crisno cracno cracid actor  year systrgmo systrgda name  triggr
   <chr>  <dbl>  <dbl>  <dbl> <chr> <dbl>    <dbl>    <dbl> <chr>  <dbl>
 1 ICB2       1      1    365 RUS    1918        5       NA RUSS…      9
 2 ICB2       2      2     93 NIC    1918        5       25 COST…      7
 3 ICB2       2      3     94 COS    1918        5       25 COST…      4
 4 ICB2       3      4    365 RUS    1918        6       23 RUSS…      7
 5 ICB2       4      5    365 RUS    1918       11       18 BALT…      6
 6 ICB2       4      6    366 EST    1918       11       18 BALT…      9
 7 ICB2       4      7    368 LIT    1918       11       18 BALT…      9
 8 ICB2       4      8    367 LAT    1918       11       18 BALT…      9
 9 ICB2       5      9    315 CZE    1919        1       15 TESC…      2
10 ICB2       5     10    290 POL    1919        1       15 TESC…      7
# ℹ 1,121 more rows
# ℹ 85 more variables: yrtrig <dbl>, motrig <dbl>, datrig <dbl>,
#   trigent <dbl>, trigloc <dbl>, southv <dbl>, southpow <dbl>,
#   sizedu <dbl>, strcdu <dbl>, comlev <dbl>, majres <dbl>,
#   yerres <dbl>, monres <dbl>, dayres <dbl>, trgresra <dbl>,
#   crismg <dbl>, cenvio <dbl>, sevvio <dbl>, usinv <dbl>,
#   usfavr <dbl>, suinv <dbl>, sufavr <dbl>, gbinv <dbl>, …

If you want certain columns to be placed first, use the relocate() function.

relocate(df_crises, crisname, actor)

# A tibble: 1,131 × 95
   crisname  actor icb2  crisno cracno cracid systrgyr systrgmo systrgda
   <chr>     <chr> <chr>  <dbl>  <dbl>  <dbl>    <dbl>    <dbl>    <dbl>
 1 RUSSIAN … RUS   ICB2       1      1    365     1918        5       NA
 2 COSTA RI… NIC   ICB2       2      2     93     1918        5       25
 3 COSTA RI… COS   ICB2       2      3     94     1918        5       25
 4 RUSSIAN … RUS   ICB2       3      4    365     1918        6       23
 5 BALTIC I… RUS   ICB2       4      5    365     1918       11       18
 6 BALTIC I… EST   ICB2       4      6    366     1918       11       18
 7 BALTIC I… LIT   ICB2       4      7    368     1918       11       18
 8 BALTIC I… LAT   ICB2       4      8    367     1918       11       18
 9 TESCHEN   CZE   ICB2       5      9    315     1919        1       15
10 TESCHEN   POL   ICB2       5     10    290     1919        1       15
# ℹ 1,121 more rows
# ℹ 86 more variables: triggr <dbl>, yrtrig <dbl>, motrig <dbl>,
#   datrig <dbl>, trigent <dbl>, trigloc <dbl>, southv <dbl>,
#   southpow <dbl>, sizedu <dbl>, strcdu <dbl>, comlev <dbl>,
#   majres <dbl>, yerres <dbl>, monres <dbl>, dayres <dbl>,
#   trgresra <dbl>, crismg <dbl>, cenvio <dbl>, sevvio <dbl>,
#   usinv <dbl>, usfavr <dbl>, suinv <dbl>, sufavr <dbl>, …

To rearrange the rows of the data, you can use the arrange() function. By default, it sorts the data in ascending order of the column name(s) you feed it.

# Arrange in ascending order of actor numeric ID
arrange(df_crises, cracid)

# A tibble: 1,131 × 95
   icb2  crisno cracno cracid actor systrgyr systrgmo systrgda crisname 
   <chr>  <dbl>  <dbl>  <dbl> <chr>    <dbl>    <dbl>    <dbl> <chr>    
 1 ICB2      59    128      2 USA       1937       12       12 PANAY IN…
 2 ICB2      88    224      2 USA       1941       11       26 PEARL HA…
 3 ICB2     104    251      2 USA       1945        5        1 TRIESTE I
 4 ICB2     108    259      2 USA       1945        8       23 AZERBAIJ…
 5 ICB2     111    265      2 USA       1946        8        7 TURKISH …
 6 ICB2     114    271      2 USA       1947        2       21 TRUMAN D…
 7 ICB2     123    293      2 USA       1948        6        7 BERLIN B…
 8 ICB2     125    295      2 USA       1948        9       23 CHINA CI…
 9 ICB2     132    308      2 USA       1950        6       25 KOREAN W…
10 ICB2     133    314      2 USA       1950        9       30 KOREAN W…
# ℹ 1,121 more rows
# ℹ 86 more variables: triggr <dbl>, yrtrig <dbl>, motrig <dbl>,
#   datrig <dbl>, trigent <dbl>, trigloc <dbl>, southv <dbl>,
#   southpow <dbl>, sizedu <dbl>, strcdu <dbl>, comlev <dbl>,
#   majres <dbl>, yerres <dbl>, monres <dbl>, dayres <dbl>,
#   trgresra <dbl>, crismg <dbl>, cenvio <dbl>, sevvio <dbl>,
#   usinv <dbl>, usfavr <dbl>, suinv <dbl>, sufavr <dbl>, …

# Arrange by start year, then by actor ID within year
arrange(df_crises, systrgyr, cracid)

# A tibble: 1,131 × 95
   icb2  crisno cracno cracid actor systrgyr systrgmo systrgda crisname 
   <chr>  <dbl>  <dbl>  <dbl> <chr>    <dbl>    <dbl>    <dbl> <chr>    
 1 ICB2       2      2     93 NIC       1918        5       25 COSTA RI…
 2 ICB2       2      3     94 COS       1918        5       25 COSTA RI…
 3 ICB2       1      1    365 RUS       1918        5       NA RUSSIAN …
 4 ICB2       3      4    365 RUS       1918        6       23 RUSSIAN …
 5 ICB2       4      5    365 RUS       1918       11       18 BALTIC I…
 6 ICB2       4      6    366 EST       1918       11       18 BALTIC I…
 7 ICB2       4      8    367 LAT       1918       11       18 BALTIC I…
 8 ICB2       4      7    368 LIT       1918       11       18 BALTIC I…
 9 ICB2       8     18    200 UKG       1919        4       15 THIRD AF…
10 ICB2      11     24    220 FRN       1919       11       NA CILICIAN…
# ℹ 1,121 more rows
# ℹ 86 more variables: triggr <dbl>, yrtrig <dbl>, motrig <dbl>,
#   datrig <dbl>, trigent <dbl>, trigloc <dbl>, southv <dbl>,
#   southpow <dbl>, sizedu <dbl>, strcdu <dbl>, comlev <dbl>,
#   majres <dbl>, yerres <dbl>, monres <dbl>, dayres <dbl>,
#   trgresra <dbl>, crismg <dbl>, cenvio <dbl>, sevvio <dbl>,
#   usinv <dbl>, usfavr <dbl>, suinv <dbl>, sufavr <dbl>, …

To instead sort in descending order, wrap the variable name in desc().

# Arrange so that the most recent crises come first
arrange(df_crises, desc(systrgyr))

# A tibble: 1,131 × 95
   icb2  crisno cracno cracid actor systrgyr systrgmo systrgda crisname 
   <chr>  <dbl>  <dbl>  <dbl> <chr>    <dbl>    <dbl>    <dbl> <chr>    
 1 ICB2     506   1117    615 ALG       2021        1        9 US VISIT…
 2 ICB2     507   1118    710 CHN       2021        1        9 US-TAIWA…
 3 ICB2     507   1119    713 TAW       2021        1        9 US-TAIWA…
 4 ICB2     508   1120    652 SYR       2021        1       13 ISRAEL-I…
 5 ICB2     508   1121    630 IRN       2021        1       13 ISRAEL-I…
 6 ICB2     509   1122    740 JPN       2021        1       22 CHINA CO…
 7 ICB2     511   1128    703 KYR       2021        4       28 KOK-TASH…
 8 ICB2     511   1129    702 TAJ       2021        4       28 KOK-TASH…
 9 ICB2     512   1130    345 YUG       2021        9       20 KOSOVO L…
10 ICB2     512   1131    347 KOS       2021        9       20 KOSOVO L…
# ℹ 1,121 more rows
# ℹ 86 more variables: triggr <dbl>, yrtrig <dbl>, motrig <dbl>,
#   datrig <dbl>, trigent <dbl>, trigloc <dbl>, southv <dbl>,
#   southpow <dbl>, sizedu <dbl>, strcdu <dbl>, comlev <dbl>,
#   majres <dbl>, yerres <dbl>, monres <dbl>, dayres <dbl>,
#   trgresra <dbl>, crismg <dbl>, cenvio <dbl>, sevvio <dbl>,
#   usinv <dbl>, usfavr <dbl>, suinv <dbl>, sufavr <dbl>, …
…
[1] FALSE  TRUE  TRUE FALSE  TRUE

x < y || x > y  # won't run, will give error message

Error in x < y || x > y: 'length = 5' in coercion to 'logical(1)'

2.2.2.2 The filter() function

Now that we’re familiar with comparisons and logical operators, let’s return to the crisis data to reduce it down to Cold War–era observations.

Remember that we can pull a single column from a data frame using the dollar sign. And we can use square brackets on a data frame to select particular observations from it. So we could subset to the Cold War observations that way.

df_crises[df_crises$systrgyr >= 1946 & df_crises$systrgyr <= 1989, ]

# A tibble: 585 × 95
   icb2  crisno cracno cracid actor systrgyr systrgmo systrgda crisname 
   <chr>  <dbl>  <dbl>  <dbl> <chr>    <dbl>    <dbl>    <dbl> <chr>    
 1 ICB2     110    263    365 RUS       1946        6       30 COMMUNIS…
 2 ICB2     111    264    640 TUR       1946        8        7 TURKISH …
 3 ICB2     111    265      2 USA       1946        8        7 TURKISH …
 4 ICB2     112    266    350 GRC       1946       11       13 GREEK CI…
 5 ICB2     113    267    365 RUS       1947        2       10 COMMUNIS…
 6 ICB2     113    268    310 HUN       1947        2       10 COMMUNIS…
 7 ICB2     114    269    350 GRC       1947        2       21 TRUMAN D…
 8 ICB2     114    270    640 TUR       1947        2       21 TRUMAN D…
 9 ICB2     114    271      2 USA       1947        2       21 TRUMAN D…
10 ICB2     115    272    365 RUS       1947        7        3 MARSHALL…
# ℹ 575 more rows
# ℹ 86 more variables: triggr <dbl>, yrtrig <dbl>, motrig <dbl>,
#   datrig <dbl>, trigent <dbl>, trigloc <dbl>, southv <dbl>,
#   southpow <dbl>, sizedu <dbl>, strcdu <dbl>, comlev <dbl>,
#   majres <dbl>, yerres <dbl>, monres <dbl>, dayres <dbl>,
#   trgresra <dbl>, crismg <dbl>, cenvio <dbl>, sevvio <dbl>,
#   usinv <dbl>, usfavr <dbl>, suinv <dbl>, sufavr <dbl>, …
…
