4 Data Visualization – Quantitative Political Science I
…
Warning: There were 2 warnings in `mutate()`.
The first warning was:
ℹ In argument: `iso3c = countryname(name, destination = "iso3c")`.
Caused by warning:
! Some values were not matched unambiguously: Ascension Island, Azores, Barbuda, Canary Islands, Chagos Archipelago, Grenadines, Heard Island, Madeira Islands, Micronesia, Saba, Saint Martin, Siachen Glacier, Sint Eustatius, Virgin Islands
ℹ Run `dplyr::last_dplyr_warnings()` to see the 1 remaining warning.

df_world_map

# A tibble: 99,338 × 18
    long   lat group order name  subregion iso3c country  year
   <dbl> <dbl> <dbl> <int> <chr> <chr>     <chr> <chr>   <dbl>
 1 -69.9  12.5     1     1 Aruba <NA>      ABW   Aruba    2019
 2 -69.9  12.4     1     2 Aruba <NA>      ABW   Aruba    2019
 3 -69.9  12.4     1     3 Aruba <NA>      ABW   Aruba    2019
 4 -70.0  12.5     1     4 Aruba <NA>      ABW   Aruba    2019
 5 -70.1  12.5     1     5 Aruba <NA>      ABW   Aruba    2019
 6 -70.1  12.6     1     6 Aruba <NA>      ABW   Aruba    2019
 7 -70.0  12.6     1     7 Aruba <NA>      ABW   Aruba    2019
 8 -70.0  12.6     1     8 Aruba <NA>      ABW   Aruba    2019
 9 -69.9  12.5     1     9 Aruba <NA>      ABW   Aruba    2019
10 -69.9  12.5     1    10 Aruba <NA>      ABW   Aruba    2019
# ℹ 99,328 more rows
# ℹ 9 more variables: gdp_per_capita <dbl>, gdp_growth <dbl>,
#   population <dbl>, inflation <dbl>, unemployment <dbl>,
#   life_expectancy <dbl>, region <chr>, income <chr>, lending <chr>
…
