Appendix B — Data Sources – Quantitative Political Science I
…
This file contains a small number of variables from the 2024 wave of the General Social Survey.

Using Kieran Healy’s gssr package to download the data:

gss_file <- "_raw/gss_2024.csv"
if (!file.exists(gss_file)) {
  df_gss_pkg <- gss_get_yr(2024)
  write_csv(df_gss_pkg, gss_file)
}

df_gss_raw <- read_csv(gss_file)

df_gss_raw

# A tibble: 3,309 × 639
    year    id wrkstat  hrs1  hrs2 evwork marital martype divorce
   <dbl> <dbl>   <dbl> <dbl> <dbl>  <dbl>   <dbl>   <dbl>   <dbl>
 1  2024     1       1    43    NA     NA       5      NA      NA
 2  2024     2       5    NA    NA      1       5      NA      NA
 3  2024     3       5    NA    NA      1       1       1       2
 4  2024     4       2    20    NA     NA       5      NA      NA
 5  2024     5       5    NA    NA      1       3      NA      NA
 6  2024     6       4    NA    NA     NA       1       1       2
 7  2024     7       1    80    NA     NA       1       1       1
 8  2024     8       6    NA    NA      1       3      NA      NA
 9  2024     9       1    50    NA     NA       1      NA      NA
10  2024    10       4    NA    NA     NA       5      NA      NA
# ℹ 3,299 more rows
# ℹ 630 more variables: widowed <dbl>, spwrksta <dbl>, sphrs1 <dbl>,
#   sphrs2 <dbl>, spevwork <dbl>, cowrksta <dbl>, coevwork <dbl>,
#   cohrs1 <dbl>, cohrs2 <dbl>, sibs <dbl>, childs <dbl>, age <dbl>,
#   educ <dbl>, speduc <dbl>, coeduc <dbl>, codeg <dbl>, degree <dbl>,
#   padeg <dbl>, madeg <dbl>, spdeg <dbl>, sex <dbl>, race <dbl>,
#   res16 <dbl>, reg16 <dbl>, mobile16 <dbl>, family16 <dbl>, …
…
