1 Introduction to R – Quantitative Political Science I
…
Finally, once you’ve confirmed that the data file you want to analyze shows up here, you can load it into R by plugging the filename into read_csv(). As always, the filename will need go inside quotation marks. For example, if the file is called pre_election_polls.csv, you would run:

df_polls <- read_csv("pre_election_polls.csv")

1.4.2 Looking at the data

If in the bottom of your heart you long for the comfort of Microsoft Excel, you can get a spreadsheet-type view of the data using the View() command in RStudio:

View(df_turnout)

Or you can see info in the R console by typing the variable name into the prompt and hitting enter:

df_turnout

# A tibble: 22 × 7
    year votes_counted voting_age_pop voting_eligible_pop ineligible_felons
   <dbl>         <dbl>          <dbl>               <dbl>             <dbl>
 1  1980          86.5           164.                160.             0.802
 2  1982          67.6           166.                160.             0.960
 3  1984          92.7           174.                168.             1.17 
 4  1986          65.0           178.                170.             1.37 
 5  1988          91.6           182.                174.             1.59 
 6  1990          67.9           186.                177.             1.90 
 7  1992         104.            191.                180.             2.18 
 8  1994          75.1           195.                183.             2.44 
 9  1996          96.3           200.                186.             2.59 
10  1998          74.8           205.                190.             2.92 
# ℹ 12 more rows
# ℹ 2 more variables: ineligible_noncitizens <dbl>, eligible_overseas <dbl>
…
# A tibble: 4 × 7
   year votes_counted voting_age_pop voting_eligible_pop ineligible_felons
  <dbl>         <dbl>          <dbl>               <dbl>             <dbl>
1  1984          92.7           174.                168.              1.17
2  1986          65.0           178.                170.              1.37
3  1988          91.6           182.                174.              1.59
4  1990          67.9           186.                177.              1.90
# ℹ 2 more variables: ineligible_noncitizens <dbl>, eligible_overseas <dbl>

You can retrieve a column by numeric index within brackets…

df_turnout[, 4]

# A tibble: 22 × 1
   voting_eligible_pop
                 <dbl>
 1                160.
 2                160.
 3                168.
 4                170.
 5                174.
 6                177.
 7                180.
 8                183.
 9                186.
10                190.
# ℹ 12 more rows

…or by name (quoted) within brackets…

df_turnout[, "voting_eligible_pop"]

# A tibble: 22 × 1
   voting_eligible_pop
                 <dbl>
 1                160.
 2                160.
 3                168.
 4                170.
 5                174.
 6                177.
 7                180.
 8                183.
 9                186.
10                190.
# ℹ 12 more rows
…
