6 Simulation and Resampling – Quantitative Political Science I
…
  # Run regression
  fit_loop <- lm(y_musk ~ x_diermeier, data = df_loop)

  # Store results of this iteration
  df_regression_sim <- bind_rows(df_regression_sim, tidy(fit_loop))
}

df_regression_sim

# A tibble: 200 × 5
   term        estimate std.error statistic  p.value
   <chr>          <dbl>     <dbl>     <dbl>    <dbl>
 1 (Intercept)    7.87     2.85        2.76 8.19e- 3
 2 x_diermeier    0.513    0.0590      8.70 2.00e-11
 3 (Intercept)    9.81     2.00        4.91 1.08e- 5
 4 x_diermeier    0.503    0.0394     12.8  4.98e-17
 5 (Intercept)    8.92     2.48        3.59 7.69e- 4
 6 x_diermeier    0.496    0.0469     10.6  3.82e-14
 7 (Intercept)    6.32     2.22        2.85 6.45e- 3
 8 x_diermeier    0.573    0.0424     13.5  5.68e-18
 9 (Intercept)    8.80     2.37        3.71 5.36e- 4
10 x_diermeier    0.507    0.0439     11.6  1.83e-15
# ℹ 190 more rows
…
Run a new simulation with a similar regression equation, except where the true slope is 0. This time do 1000 simulation iterations instead of 100. In how many of your iterations is the slope “statistically significant”, in terms of having a \(p\)-value of 0.05 or less?

#
# [Write your answer here]
#

6.3 Resampling

The basic idea behind these simulations can also be applied to estimate uncertainty in real data problems. To see this principle in action, we will work with the same survey data as in Chapter 5.

df_anes <- read_csv("https://bkenkel.com/qps1/data/anes_2020.csv")

df_anes

# A tibble: 8,280 × 31
      id state  female  lgbt race    age education employed hours_worked
   <dbl> <chr>   <dbl> <dbl> <chr> <dbl> <chr>        <dbl>        <dbl>
 1     1 Oklah…      0     0 Hisp…    46 Bachelor…        1           40
 2     2 Idaho       1     0 Asian    37 Some col…        1           40
 3     3 Virgi…      1     0 White    40 High sch…        0            0
 4     4 Calif…      0     0 Asian    41 Some col…        1           40
 5     5 Color…      0     0 Nati…    72 Graduate…        0            0
 6     6 Texas       1     0 White    71 Some col…        0            0
 7     7 Wisco…      1     0 White    37 Some col…        1           30
 8     8 <NA>        1     0 White    45 High sch…        0           40
 9     9 Arizo…      1     0 White    70 High sch…        0            0
10    10 Calif…      0     0 Hisp…    43 Some col…        1           30
# ℹ 8,270 more rows
# ℹ 22 more variables: watch_tucker <dbl>, watch_maddow <dbl>,
#   therm_biden <dbl>, therm_trump <dbl>, therm_harris <dbl>,
#   therm_pence <dbl>, therm_obama <dbl>, therm_dem_party <dbl>,
#   therm_rep_party <dbl>, therm_feminists <dbl>, therm_liberals <dbl>,
#   therm_labor_unions <dbl>, therm_big_business <dbl>,
#   therm_conservatives <dbl>, therm_supreme_court <dbl>, …
…
We want to separate the signal from the noise — to figure out what inferences we can reliably draw from the data we have, as opposed to patterns that might have shown up through sheer random chance. Our goal is to gauge “If we could draw a bunch of new random samples of the same size, how much would we expect our regression estimates to vary from sample to sample?” This may seem like an impossible question to answer with a single sample. It turns out, however, that we can get an approximate answer using a technique called the bootstrap.

The basic idea behind the bootstrap is that we can generate new random samples by sampling with replacement from our original data. Because we are sampling with replacement, some of our original observations will show up 2, 3, or even more times in any given bootstrap sample, while others won’t be included at all. In the same fashion as the simulations we ran above, we won’t just draw one bootstrap sample — we will draw hundreds or even thousands of new samples, so as to get an idea of how our statistical calculations would vary from sample to sample.

To draw a single bootstrap sample from a data frame, we can use the slice_sample() function.

set.seed(1789)

df_boot <- df_anes |>
  slice_sample(prop = 1, replace = TRUE)

df_boot

# A tibble: 8,280 × 31
      id state  female  lgbt race    age education employed hours_worked
   <dbl> <chr>   <dbl> <dbl> <chr> <dbl> <chr>        <dbl>        <dbl>
 1  3243 Calif…      1     0 Nati…    64 Some col…        0            0
 2  7413 Michi…      1     0 White    70 Bachelor…        0            0
 3  3511 Washi…      0     0 White    76 Bachelor…        0            0
 4  4841 Massa…      1     0 White    80 <NA>             0            0
 5  6165 Washi…      1     0 White    64 Bachelor…        1           40
 6  2698 Maryl…      1     0 White    47 Graduate…        1           50
 7  5578 Calif…      0     0 Asian    55 Bachelor…        1           60
 8  3543 Nevada      1     0 Black    52 Some col…        1           40
 9  7316 Calif…      1     0 White    80 Less tha…        0            0
10  3827 Flori…      0    NA Nati…    NA Some col…        0            0
# ℹ 8,270 more rows
# ℹ 22 more variables: watch_tucker <dbl>, watch_maddow <dbl>,
#   therm_biden <dbl>, therm_trump <dbl>, therm_harris <dbl>,
#   therm_pence <dbl>, therm_obama <dbl>, therm_dem_party <dbl>,
#   therm_rep_party <dbl>, therm_feminists <dbl>, therm_liberals <dbl>,
#   therm_labor_unions <dbl>, therm_big_business <dbl>,
#   therm_conservatives <dbl>, therm_supreme_court <dbl>, …
…
# Resample the data 1000 times (aka: 1000 bootstrap iterations)
for (i in 1:1000) {
  # Draw bootstrap sample
  df_boot <- slice_sample(df_anes, prop = 1, replace = TRUE)

  # Rerun regression model on bootstrap sample
  fit_boot <- lm(therm_trump ~ therm_police, data = df_boot)

  # Save results
  df_coef_boot <- bind_rows(df_coef_boot, tidy(fit_boot))
}

df_coef_boot

# A tibble: 2,000 × 5
   term         estimate std.error statistic  p.value
   <chr>           <dbl>     <dbl>     <dbl>    <dbl>
 1 (Intercept)   -10.7      1.25       -8.57 1.27e-17
 2 therm_police    0.722    0.0167     43.2  0       
 3 (Intercept)   -11.3      1.21       -9.30 1.79e-20
 4 therm_police    0.732    0.0163     45.0  0       
 5 (Intercept)   -13.2      1.27      -10.4  3.79e-25
 6 therm_police    0.752    0.0170     44.3  0       
 7 (Intercept)   -14.0      1.30      -10.8  7.64e-27
 8 therm_police    0.758    0.0173     43.9  0       
 9 (Intercept)   -10.2      1.22       -8.36 7.58e-17
10 therm_police    0.711    0.0164     43.4  0       
# ℹ 1,990 more rows
…
