7 Text Analysis – Quantitative Political Science I
…
Regression-type statistical models for classification with many features. There are a few key differences from the regression techniques we worked with before:

The response and the predictions will be categorical instead of numeric.

We will be able to make predictions with many, many features — potentially even more features than we have observations in our sample.

We will use specialized techniques to avoid overfitting — treating “noise” in the data as if it were a “signal” — which is especially important when we have very many features.

We will work with a slightly cleaned-up version of the Federalist Papers, via the data file fed_papers.csv. This file is available on my website at https://bkenkel.com/qps1/data/fed_papers.csv. It’s constructed using the raw Federalist Papers text from Project Gutenberg.

df_fed_papers <- read_csv("https://bkenkel.com/qps1/data/fed_papers.csv")

df_fed_papers

# A tibble: 85 × 3
   paper_id author   text                                               
      <dbl> <chr>    <chr>                                              
 1        1 hamilton "To the People of the State of New York:\n\nAfter …
 2        2 jay      "To the People of the State of New York:\n\nWhen t…
 3        3 jay      "To the People of the State of New York:\n\nIt is …
 4        4 jay      "To the People of the State of New York:\n\nMy las…
 5        5 jay      "To the People of the State of New York:\n\nQueen …
 6        6 hamilton "To the People of the State of New York:\n\nThe th…
 7        7 hamilton "To the People of the State of New York:\n\nIt is …
 8        8 hamilton "To the People of the State of New York:\n\nAssumi…
 9        9 hamilton "To the People of the State of New York:\n\nA firm…
10       10 madison  "To the People of the State of New York:\n\nAmong …
# ℹ 75 more rows
…
By default, unnest_tokens() gets rid of all capitalization and punctuation, leaving us with the raw words. That’s typically what we want for text analysis. We don’t want to treat "bananas" like a different word from "Bananas", or "ate" different from "ate??". (Of course, for some purposes you would want to make such distinctions, and then you’d use custom options in tokenization so that these would be treated as separate tokens.)

When we put the Federalist Papers through the unnest_tokens() function, we end up with many thousands of individual words. We’ll store these in a new data frame called df_fed_tokens, so we don’t overwrite the original raw data.

df_fed_tokens <- df_fed_papers |>
  unnest_tokens(input = text, output = word)

df_fed_tokens

# A tibble: 190,623 × 3
   paper_id author   word  
      <dbl> <chr>    <chr> 
 1        1 hamilton to    
 2        1 hamilton the   
 3        1 hamilton people
 4        1 hamilton of    
 5        1 hamilton the   
 6        1 hamilton state 
 7        1 hamilton of    
 8        1 hamilton new   
 9        1 hamilton york  
10        1 hamilton after 
# ℹ 190,613 more rows

We can use our typical data wrangling functions to see which words appear most commonly in the Federalist Papers data. Are the most common words high-minded things like “politics” and “president” and “constitution”?

df_fed_tokens |>
  group_by(word) |>
  summarize(number = n()) |>
  arrange(desc(number))

# A tibble: 8,689 × 2
   word  number
   <chr>  <int>
 1 the    17767
 2 of     11812
 3 to      7060
 4 and     5089
 5 in      4450
 6 a       3989
 7 be      3832
 8 that    2789
 9 it      2543
10 is      2190
# ℹ 8,679 more rows

Nope, they’re extremely boring common words that would appear in virtually any English language document. Which brings us to our next task…

7.2.2 Removing stop words

Words that appear commonly and don’t have much topical meaning — e.g., “the”, “an”, “but”, “with” — are called stop words. We don’t typically expect these words to do much to help us classify documents, so it’s common to remove them before performing text analysis. There are multiple different lists of English stop words out there for different use cases, but we’ll just use the default list included in the stop_words data frame (via the tidytext package).

stop_words

# A tibble: 1,149 × 2
   word        lexicon
   <chr>       <chr>  
 1 a           SMART  
 2 a's         SMART  
 3 able        SMART  
 4 about       SMART  
 5 above       SMART  
 6 according   SMART  
 7 accordingly SMART  
 8 across      SMART  
 9 actually    SMART  
10 after       SMART  
# ℹ 1,139 more rows

We want to reduce df_fed_tokens, our “bag of words” data frame, to exclude these words. We can do that using the anti_join() function. Just like left_join(), which we saw back in the Data Wrangling unit, anti_join() takes two data frames and a column name as input. But it works a little bit differently: it returns only the rows of the first data frame that have no match in the second data frame. In this case, we want the rows of df_fed_tokens where the word column has no match in stop_words.

df_fed_tokens <- df_fed_tokens |>
  anti_join(stop_words, by = "word")

df_fed_tokens

# A tibble: 65,387 × 3
   paper_id author   word       
      <dbl> <chr>    <chr>      
 1        1 hamilton people     
 2        1 hamilton york       
 3        1 hamilton unequivocal
 4        1 hamilton experience 
 5        1 hamilton inefficacy 
 6        1 hamilton subsisting 
 7        1 hamilton federal    
 8        1 hamilton government 
 9        1 hamilton called     
10        1 hamilton deliberate 
# ℹ 65,377 more rows

About 2/3 of the words in the raw text were removed once we got rid of the stop words. And now if we look at the most common words, it looks a lot more like what we might intuitively expect from the Federalist Papers.

df_fed_tokens |>
  group_by(word) |>
  summarize(number = n()) |>
  arrange(desc(number))

# A tibble: 8,173 × 2
   word         number
   <chr>         <int>
 1 government      829
 2 people          612
 3 power           606
 4 constitution    462
 5 union           362
 6 national        340
 7 federal         324
 8 authority       290
 9 public          283
10 powers          255
# ℹ 8,163 more rows
…
wordStem(gov_words)

[1] "govern"   "govern"   "govern"   "govern"   "govern"   "governor"
[7] "governor"

There’s a tradeoff with stemming words like this. On the plus side, we help ensure that the meanings of words are what drive our statistical analysis. A document that uses the word “govern” many times won’t be treated differently than one that uses “governs” many times. The downside is that we lose some grammatical and syntactical information. That doesn’t matter too much when we’re treating each document like a “bag of words”, but in other applications it would be inappropriate to neglect the differences between “govern” and “governs” and “governing.”

Going back to the full Federalist Papers data, we can use a simple mutate() to stem the raw tokens.

df_fed_tokens <- df_fed_tokens |>
  mutate(word_stem = wordStem(word))

df_fed_tokens

# A tibble: 65,387 × 4
   paper_id author   word        word_stem 
      <dbl> <chr>    <chr>       <chr>     
 1        1 hamilton people      peopl     
 2        1 hamilton york        york      
 3        1 hamilton unequivocal unequivoc 
 4        1 hamilton experience  experi    
 5        1 hamilton inefficacy  inefficaci
 6        1 hamilton subsisting  subsist   
 7        1 hamilton federal     feder     
 8        1 hamilton government  govern    
 9        1 hamilton called      call      
10        1 hamilton deliberate  deliber   
# ℹ 65,377 more rows

After stemming, we end up with a similar — but not identical — list of most frequent terms across the 85 essays.

df_fed_tokens |>
  group_by(word_stem) |>
  summarize(number = n()) |>
  arrange(desc(number))

# A tibble: 4,801 × 2
   word_stem number
   <chr>      <int>
 1 govern      1040
 2 power        911
 3 constitut    685
 4 peopl        612
 5 nation       568
 6 author       397
 7 object       378
 8 union        363
 9 law          351
10 execut       347
# ℹ 4,791 more rows
…
Altogether, we have a list of word stems for each document. We want to use these to calculate a set of features for each document, which we can then use to classify them.

As a simple start, we will calculate the number of times each stemmed non-stop word appears in each document. At this point let’s make another new data frame, which we’ll call df_fed_tf (where tf stands for “term frequency” — more on that in a moment).

df_fed_tf <- df_fed_tokens |>
  group_by(paper_id, word_stem) |>
  summarize(number = n()) |>
  ungroup()

`summarise()` has grouped output by 'paper_id'. You can override using
the `.groups` argument.

df_fed_tf

# A tibble: 37,834 × 3
   paper_id word_stem  number
      <dbl> <chr>       <int>
 1        1 1               2
 2        1 absurd          1
 3        1 accid           1
 4        1 acknowledg      1
 5        1 act             1
 6        1 actuat          1
 7        1 add             1
 8        1 addit           1
 9        1 address         1
10        1 admit           1
# ℹ 37,824 more rows
…
term: What’s the name of the column containing the words/tokens we want to calculate for?

document: What’s the name of the column containing the ID of each different document?

n: What’s the name of the column containing the word/token counts by document?

In this case, our words are in word_stem, our document IDs are in paper_id, and our word counts are in number, so we run:

df_fed_tf <- df_fed_tf |>
  bind_tf_idf(term = word_stem, document = paper_id, n = number)

df_fed_tf

# A tibble: 37,834 × 6
   paper_id word_stem  number      tf   idf   tf_idf
      <dbl> <chr>       <int>   <dbl> <dbl>    <dbl>
 1        1 1               2 0.00364 0.832 0.00302 
 2        1 absurd          1 0.00182 1.73  0.00315 
 3        1 accid           1 0.00182 3.75  0.00682 
 4        1 acknowledg      1 0.00182 1.50  0.00272 
 5        1 act             1 0.00182 0.400 0.000727
 6        1 actuat          1 0.00182 2.14  0.00389 
 7        1 add             1 0.00182 1.31  0.00238 
 8        1 addit           1 0.00182 0.729 0.00133 
 9        1 address         1 0.00182 1.61  0.00293 
10        1 admit           1 0.00182 0.382 0.000695
# ℹ 37,824 more rows

We’ve now got the term frequencies, inverse document frequencies, and tf-idf for each word-document pairing in our data. Let’s see which word is the most distinctive in each document, by pulling out the word with the highest tf-idf in each document. We can use the slice_max() function to do this, after grouping by document IDs.

df_fed_tf |>
  group_by(paper_id) |>
  slice_max(tf_idf) |>
  arrange(desc(tf_idf))

# A tibble: 87 × 6
# Groups:   paper_id [85]
   paper_id word_stem number     tf   idf tf_idf
      <dbl> <chr>      <int>  <dbl> <dbl>  <dbl>
 1       83 juri          66 0.0342  2.36 0.0808
 2       82 court         38 0.0710  1.08 0.0764
 3       54 slave         14 0.0222  3.06 0.0678
 4       67 vacanc        12 0.0198  3.06 0.0605
 5       29 militia       26 0.0330  1.80 0.0595
 6       18 macedon       11 0.0131  3.75 0.0492
 7       69 governor      25 0.0240  2.04 0.0491
 8       19 emperor       13 0.0156  3.06 0.0478
 9       81 court         54 0.0410  1.08 0.0441
10       20 provinc       16 0.0258  1.67 0.0431
# ℹ 77 more rows
The results we get here line up with some basic intuitions. Federalist #82 and #83 are about the judiciary, so it makes sense that “juri” and “court” are particularly distinctive in these essays. Federalist #54 is about the apportionment of House of Representatives seats across states. The major controversy for this issue was whether and how to count enslaved persons towards a state’s population for apportionment purposes, hence the distinctiveness of “slave” for this essay. Federalist #67 is about how the president will fill vacancies, and Federalist #29 is about the maintenance of a militia. At least at a glance, it looks like tf-idf is doing a reasonable job at picking up the distinctive terms from each document.

The last thing we need to do is transform this into a data frame where each row is an essay, each column is a word, and the entries are the tf-idf of each word in each essay. In this way, the tf-idf of each word will serve as the features we use for categorization and classification, along our way to try and identify the authorship of the 11 disputed papers. To transform the data this way, we can simply use pivot_wider().

df_fed_features <- df_fed_tf |>
  select(paper_id, word_stem, tf_idf) |>
  pivot_wider(names_from = word_stem,
              values_from = tf_idf,
              values_fill = 0) |>
  select(-paper_id) |>
  select(where(~ any(.x > 0)))

df_fed_features

# A tibble: 85 × 4,796
       `1`  absurd   accid acknowledg      act  actuat     add   addit
     <dbl>   <dbl>   <dbl>      <dbl>    <dbl>   <dbl>   <dbl>   <dbl>
 1 0.00302 0.00315 0.00682    0.00272 0.000727 0.00389 0.00238 0.00133
 2 0       0       0          0       0        0       0       0      
 3 0       0       0          0.00614 0.000819 0.00439 0.00268 0.00149
 4 0       0       0          0       0.000739 0       0       0      
 5 0       0       0          0       0.000848 0       0       0      
 6 0.00191 0       0          0       0        0       0       0      
 7 0.00205 0       0          0       0.000493 0       0       0.00180
 8 0.00217 0       0          0       0.000522 0       0       0      
 9 0.00233 0       0          0       0        0       0.00183 0      
10 0       0       0          0       0.00156  0.00417 0.00127 0      
# ℹ 75 more rows
# ℹ 4,788 more variables: address <dbl>, admit <dbl>, adopt <dbl>,
#   advantag <dbl>, adversari <dbl>, advoc <dbl>, affect <dbl>,
#   afford <dbl>, aggrand <dbl>, aim <dbl>, allow <dbl>, altern <dbl>,
#   ambigu <dbl>, ambit <dbl>, ambiti <dbl>, america <dbl>, amus <dbl>,
#   analogi <dbl>, angri <dbl>, animos <dbl>, answer <dbl>,
#   antagonist <dbl>, appear <dbl>, apt <dbl>, ardent <dbl>, …
…
As a first step, we’re going to add authorship info to our data frame of word features. We will also split up the data frame into the “known” cases (those where exactly one of Hamilton or Madison is known to be the author) and the “unknown” cases (those with “Hamilton or Madison” as the listed author).

df_fed_features <- df_fed_features |>
  mutate(
    paper_author = df_fed_papers$author,
    is_hamilton = if_else(paper_author == "hamilton", 1, 0)
  ) |>
  select(paper_author, is_hamilton, everything())

df_fed_known <- df_fed_features |>
  filter(paper_author == "hamilton" | paper_author == "madison")

df_fed_known

# A tibble: 66 × 4,798
   paper_author is_hamilton     `1`  absurd   accid acknowledg      act
   <chr>              <dbl>   <dbl>   <dbl>   <dbl>      <dbl>    <dbl>
 1 hamilton               1 0.00302 0.00315 0.00682    0.00272 0.000727
 2 hamilton               1 0.00191 0       0          0       0       
 3 hamilton               1 0.00205 0       0          0       0.000493
 4 hamilton               1 0.00217 0       0          0       0.000522
 5 hamilton               1 0.00233 0       0          0       0       
 6 madison                0 0       0       0          0       0.00156 
 7 hamilton               1 0.00186 0       0          0.00167 0       
 8 hamilton               1 0.00206 0       0          0.00186 0       
 9 hamilton               1 0       0       0          0       0       
10 madison                0 0       0       0          0       0.00107 
# ℹ 56 more rows
# ℹ 4,791 more variables: actuat <dbl>, add <dbl>, addit <dbl>,
#   address <dbl>, admit <dbl>, adopt <dbl>, advantag <dbl>,
#   adversari <dbl>, advoc <dbl>, affect <dbl>, afford <dbl>,
#   aggrand <dbl>, aim <dbl>, allow <dbl>, altern <dbl>, ambigu <dbl>,
#   ambit <dbl>, ambiti <dbl>, america <dbl>, amus <dbl>,
#   analogi <dbl>, angri <dbl>, animos <dbl>, answer <dbl>, …
…
df_fed_known |>
  # Remove the non-numeric paper author column
  select(-paper_author) |>
  # Remove words that never appear in the "known" papers
  select(where(~ any(.x > 0))) |>
  # Put data into "long" format and group by word
  pivot_longer(cols = -is_hamilton, names_to = "word", values_to = "tf_idf") |>
  group_by(word) |>
  # Calculate correlation between authorship and tf-idf for each word
  summarize(cor = cor(is_hamilton, tf_idf)) |>
  # Show the strongest correlations (positive or negative) first
  arrange(desc(abs(cor)))

# A tibble: 4,469 × 2
   word        cor
   <chr>     <dbl>
 1 whilst   -0.609
 2 form     -0.563
 3 li       -0.484
 4 mix      -0.466
 5 stamp    -0.466
 6 democrat -0.456
 7 dishonor -0.456
 8 congress -0.431
 9 compass  -0.428
10 lesser   -0.425
# ℹ 4,459 more rows
…
