3 Univariate Analysis – Quantitative Political Science I
…
It wouldn’t be a introductory stats class if I didn’t mention the mode, which is the single value that appears most commonly in the data. The mode is not very useful for continuous variables. For example, in our total votes variable, there are 16,941 distinct values observed. The most common is 3,930, as there just happen to be eight counties where this was the exact total of votes. Just because we get this exact total in eight out of 22,000+ observations doesn’t make it “typical” in any meaningful sense.

df_county_pres |>
  group_by(total_votes) |>
  summarize(number = n()) |>
  arrange(desc(number))

# A tibble: 16,941 × 2
   total_votes number
         <dbl>  <int>
 1        3930      8
 2        1017      7
 3        1369      7
 4        2031      6
 5        3906      6
 6         928      5
 7        1110      5
 8        1390      5
 9        1434      5
10        1440      5
# ℹ 16,931 more rows
…
